<svg width="48" height="48" viewBox="0 0 48 48" fill="none" xmlns="http://www.w3.org/2000/svg">
<path d="M40.9688 26.8874C39.8167 26.8874 38.7444 27.1925 37.7838 27.6858L35.8832 25.427C36.7258 24.929 37.6373 24.5459 38.6008 24.3302C39.3864 24.1533 40.1649 24.0885 40.9764 24.0764C42.0245 24.0845 43.0558 23.671 43.8274 22.9064C44.6323 22.1099 45.0938 21.0017 45.0938 19.6914C45.0938 12.4891 39.0264 7.19995 32.6202 7.19995H31.0312C30.2542 7.19995 29.625 7.8291 29.625 8.6062C29.625 9.3833 30.2542 10.0125 31.0312 10.0125H32.6202C33.0392 10.0125 33.4387 10.0846 33.8438 10.1366V12.8539C33.0271 12.9279 32.2581 13.1805 31.5304 13.5193C31.5212 13.5087 31.5095 13.5017 31.5007 13.4911C30.3464 14.0309 29.3514 14.875 28.6307 15.9561L25.4297 20.7571C25.21 21.0852 24.8639 21.3064 24.4724 21.3668C21.6255 21.8044 19.1576 23.6194 17.8616 26.2697C19.0627 28.0648 19.7812 30.2035 19.7812 32.5124H16.875C16.875 27.8597 13.0902 24.0749 8.4375 24.0749C3.78479 24.0749 0 27.8597 0 32.5124C0 37.1652 3.78479 40.9499 8.4375 40.9499C12.0992 40.9499 15.1919 38.5916 16.3568 35.3249H29.625C30.4021 35.3249 31.0312 34.6958 31.0312 33.9187C31.0312 33.1372 31.1246 32.3392 31.3074 31.5486C31.6904 29.9065 32.5444 28.412 33.6907 27.191L35.5887 29.4465C34.5732 30.6656 33.9375 32.2118 33.9375 33.9187C33.9375 37.7954 37.092 40.9499 40.9688 40.9499C44.8455 40.9499 48 37.7954 48 33.9187C48 30.042 44.8455 26.8874 40.9688 26.8874ZM8.4375 38.1374C5.33533 38.1374 2.8125 35.6146 2.8125 32.5124C2.8125 29.4103 5.33533 26.8874 8.4375 26.8874C11.5397 26.8874 14.0625 29.4103 14.0625 32.5124H9.84375C9.06775 32.5124 8.4375 31.8822 8.4375 31.1062C8.4375 30.3291 7.80835 29.6999 7.03125 29.6999C6.25415 29.6999 5.625 30.3291 5.625 31.1062C5.625 33.4324 7.51758 35.3249 9.84375 35.3249H13.2803C12.3047 36.9982 10.5106 38.1374 8.4375 38.1374ZM40.9688 38.1374C38.6426 38.1374 36.75 36.2449 36.75 33.9187C36.75 33.1039 36.9928 32.3491 37.3945 31.7031L39.8701 34.7976C40.359 35.4073 41.2445 35.4993 41.8477 35.0173C42.4534 34.531 42.5522 33.647 42.0674 33.0398L39.5947 29.949C40.0276 29.7985 40.485 29.6999 40.9688 29.6999C43.2949 29.6999 45.1875 31.5925 45.1875 33.9187C45.1875 36.2449 43.2949 38.1374 40.9688 38.1374Z" fill="#50B464"/>
<path d="M23.8815 18.0101L26.2908 14.396C27.0609 13.2402 28.0709 12.3013 29.2183 11.5721C27.675 10.5977 25.896 10.0125 24.0001 10.0125C20.6775 10.0125 17.6083 11.7062 15.8018 14.4224L18.051 15.7722C19.8579 16.8562 21.8365 17.582 23.8815 18.0101Z" fill="#50B464"/>
<path d="M16.6036 18.1833L7.57947 12.825H1.40625C0.629151 12.825 0 13.4541 0 14.2312C0 18.1079 3.15454 21.2625 7.03125 21.2625C9.84412 21.2625 12.7621 21.3236 15.8884 24.0413C15.9005 24.0189 15.9005 23.9937 15.9141 23.972C17.005 22.2179 18.5453 20.8578 20.3112 19.902C19.0327 19.4343 17.781 18.8894 16.6036 18.1833Z" fill="#50B464"/>
</svg>
