<svg width="92" height="92" viewBox="0 0 92 92" fill="none" xmlns="http://www.w3.org/2000/svg">
<g filter="url(#filter0_d)">
<circle cx="46" cy="46" r="30" transform="rotate(-180 46 46)" fill="white"/>
</g>
<path d="M40.3062 46.0129C39.8979 46.4149 39.8979 47.0851 40.3062 47.4871L49.1078 56.1985C49.5614 56.6005 50.242 56.6005 50.6503 56.1985L51.6938 55.171C52.1021 54.7689 52.1021 54.0988 51.6938 53.6521L44.707 46.7723L51.6938 39.8479C52.1021 39.4012 52.1021 38.7311 51.6938 38.329L50.6503 37.3015C50.242 36.8995 49.5614 36.8995 49.1078 37.3015L40.3062 46.0129Z" fill="#329945"/>
<defs>
<filter id="filter0_d" x="0" y="0" width="92" height="92" filterUnits="userSpaceOnUse" color-interpolation-filters="sRGB">
<feFlood flood-opacity="0" result="BackgroundImageFix"/>
<feColorMatrix in="SourceAlpha" type="matrix" values="0 0 0 0 0 0 0 0 0 0 0 0 0 0 0 0 0 0 127 0"/>
<feOffset/>
<feGaussianBlur stdDeviation="8"/>
<feColorMatrix type="matrix" values="0 0 0 0 0 0 0 0 0 0 0 0 0 0 0 0 0 0 0.12 0"/>
<feBlend mode="normal" in2="BackgroundImageFix" result="effect1_dropShadow"/>
<feBlend mode="normal" in="SourceGraphic" in2="effect1_dropShadow" result="shape"/>
</filter>
</defs>
</svg>
