<svg width="21" height="21" viewBox="0 0 21 21" fill="none" xmlns="http://www.w3.org/2000/svg">
<path d="M10.5 21C16.299 21 21 16.299 21 10.5C21 4.70101 16.299 0 10.5 0C4.70101 0 0 4.70101 0 10.5C0 16.299 4.70101 21 10.5 21Z" fill="#F0F0F0"/>
<path d="M2.16869 4.10742C1.34391 5.18051 0.72199 6.41734 0.359863 7.76097H5.82224L2.16869 4.10742Z" fill="#0052B4"/>
<path d="M20.6356 7.76093C20.2735 6.41734 19.6515 5.18051 18.8268 4.10742L15.1733 7.76093H20.6356Z" fill="#0052B4"/>
<path d="M0.359863 13.2395C0.722031 14.5831 1.34395 15.8199 2.16869 16.893L5.82212 13.2395H0.359863Z" fill="#0052B4"/>
<path d="M16.8908 2.17069C15.8177 1.3459 14.5809 0.723984 13.2373 0.361816V5.82415L16.8908 2.17069Z" fill="#0052B4"/>
<path d="M4.10742 18.8299C5.18051 19.6547 6.41734 20.2766 7.76093 20.6388V15.1765L4.10742 18.8299Z" fill="#0052B4"/>
<path d="M7.76089 0.361816C6.4173 0.723984 5.18047 1.3459 4.10742 2.17065L7.76089 5.82411V0.361816Z" fill="#0052B4"/>
<path d="M13.2373 20.6388C14.5809 20.2766 15.8177 19.6547 16.8908 18.83L13.2373 15.1765V20.6388Z" fill="#0052B4"/>
<path d="M15.1733 13.2395L18.8268 16.893C19.6515 15.82 20.2735 14.5831 20.6356 13.2395H15.1733Z" fill="#0052B4"/>
<path d="M20.9111 9.13045H11.8696H11.8696V0.0888809C11.4213 0.0305156 10.9642 0 10.5 0C10.0357 0 9.57875 0.0305156 9.13045 0.0888809V9.13037V9.13041H0.0888809C0.0305156 9.57875 0 10.0358 0 10.5C0 10.9643 0.0305156 11.4213 0.0888809 11.8696H9.13037H9.13041V20.9111C9.57875 20.9695 10.0357 21 10.5 21C10.9642 21 11.4213 20.9695 11.8696 20.9111V11.8696V11.8696H20.9111C20.9695 11.4213 21 10.9643 21 10.5C21 10.0358 20.9695 9.57875 20.9111 9.13045Z" fill="#D80027"/>
<path d="M13.2378 13.2395L17.9233 17.925C18.1388 17.7096 18.3443 17.4844 18.5405 17.2509L14.529 13.2395H13.2378V13.2395Z" fill="#D80027"/>
<path d="M7.76167 13.2395H7.76159L3.07617 17.9249C3.29159 18.1404 3.5168 18.346 3.75026 18.5421L7.76167 14.5306V13.2395Z" fill="#D80027"/>
<path d="M7.76018 7.76078V7.7607L3.07472 3.0752C2.85923 3.29061 2.65366 3.51583 2.45752 3.74929L6.46897 7.76074H7.76018V7.76078Z" fill="#D80027"/>
<path d="M13.2378 7.7612L17.9233 3.07566C17.7079 2.86016 17.4827 2.65459 17.2492 2.4585L13.2378 6.46995V7.7612Z" fill="#D80027"/>
</svg>
