<svg width="50" height="50" viewBox="0 0 50 50" fill="none" xmlns="http://www.w3.org/2000/svg">
<path d="M40.49 18.5C43.0717 16.5633 44.1267 13.19 43.105 10.1283C42.0833 7.065 39.2183 5 35.99 5C32.7617 5 29.895 7.065 28.875 10.1283C27.8533 13.1917 28.9067 16.5633 31.49 18.5C31 18.6367 30.5183 18.8033 30.05 19C27.1883 16.3317 22.7517 16.3317 19.89 19C19.42 18.8033 18.94 18.6367 18.45 18.5C21.0333 16.5633 22.0867 13.19 21.065 10.1283C20.045 7.065 17.1783 5 13.95 5C10.7217 5 7.855 7.065 6.835 10.1283C5.81333 13.19 6.86667 16.5633 9.45 18.5C3.85667 20.0867 -0.00166613 25.1967 5.39745e-07 31.01V32.01C5.39745e-07 32.5617 0.448334 33.01 1 33.01H15.7C12.7233 35.4783 11.0017 39.1433 11 43.01V44.01C11 44.5617 11.4483 45.01 12 45.01H38C38.5517 45.01 39 44.5617 39 44.01V43.01C38.9967 39.1417 37.27 35.4767 34.29 33.01H49C49.5517 33.01 50 32.5617 50 32.01V31.01C49.9933 25.1783 46.1067 20.065 40.49 18.5ZM30.49 12.5C30.4933 10.2767 31.835 8.275 33.89 7.42667C35.9433 6.57833 38.3067 7.04833 39.8783 8.62C41.45 10.1917 41.9217 12.555 41.0733 14.61C40.225 16.6633 38.2233 18.0067 36 18.01C32.965 18.005 30.505 15.545 30.5 12.51L30.49 12.5ZM25 19.01C27.225 19.01 29.23 20.35 30.0817 22.405C30.9333 24.46 30.4617 26.8267 28.89 28.3983C27.3167 29.9717 24.9517 30.4417 22.8967 29.59C20.8417 28.7383 19.5017 26.7333 19.5017 24.5083C19.505 21.475 21.965 19.015 25 19.01ZM8.5 12.51C8.5 10.285 9.84 8.28 11.895 7.42833C13.95 6.57667 16.3167 7.04667 17.8883 8.62C19.4617 10.1933 19.9317 12.5583 19.08 14.6133C18.23 16.67 16.225 18.01 14 18.01C10.965 18.005 8.505 15.545 8.5 12.51ZM2 31.01C2 24.935 6.925 20.01 13 20.01H15C16.2267 20.0117 17.4417 20.2183 18.6 20.62C16.58 23.91 17.4083 28.2 20.51 30.5C19.9967 30.6367 19.4917 30.8067 19 31.01H2ZM37 43.01H13C13 36.935 17.925 32.01 24 32.01H26C32.075 32.01 37 36.935 37 43.01ZM31 31.01C30.5117 30.8067 30.01 30.6367 29.5 30.5C32.6 28.2 33.43 23.91 31.41 20.62C32.565 20.2183 33.7783 20.0133 35 20.01H37C43.075 20.01 48 24.935 48 31.01H31Z" fill="url(#paint0_linear)"/>
<defs>
<linearGradient id="paint0_linear" x1="15.7813" y1="45.01" x2="15.7813" y2="-7.9199" gradientUnits="userSpaceOnUse">
<stop stop-color="#DA2128"/>
<stop offset="1" stop-color="#FF9E67"/>
</linearGradient>
</defs>
</svg>
