<svg width="11" height="15" viewBox="0 0 11 15" fill="none" xmlns="http://www.w3.org/2000/svg">
<path d="M6.375 4.46875V0.75H0.90625C0.523438 0.75 0.25 1.05078 0.25 1.40625V14.0938C0.25 14.4766 0.523438 14.75 0.90625 14.75H10.0938C10.4492 14.75 10.75 14.4766 10.75 14.0938V5.125H7.03125C6.64844 5.125 6.375 4.85156 6.375 4.46875ZM8.125 10.9219C8.125 11.1133 7.96094 11.25 7.79688 11.25H3.20312C3.01172 11.25 2.875 11.1133 2.875 10.9219V10.7031C2.875 10.5391 3.01172 10.375 3.20312 10.375H7.79688C7.96094 10.375 8.125 10.5391 8.125 10.7031V10.9219ZM8.125 9.17188C8.125 9.36328 7.96094 9.5 7.79688 9.5H3.20312C3.01172 9.5 2.875 9.36328 2.875 9.17188V8.95312C2.875 8.78906 3.01172 8.625 3.20312 8.625H7.79688C7.96094 8.625 8.125 8.78906 8.125 8.95312V9.17188ZM8.125 7.20312V7.42188C8.125 7.61328 7.96094 7.75 7.79688 7.75H3.20312C3.01172 7.75 2.875 7.61328 2.875 7.42188V7.20312C2.875 7.03906 3.01172 6.875 3.20312 6.875H7.79688C7.96094 6.875 8.125 7.03906 8.125 7.20312ZM10.75 4.08594C10.75 3.92188 10.668 3.75781 10.5586 3.62109L7.87891 0.941406C7.74219 0.832031 7.57812 0.75 7.41406 0.75H7.25V4.25H10.75V4.08594Z" fill="#329945"/>
</svg>
